{contents:[
{	
	name:"luxe-home-1",
	headline:{ 
		h1:"We Find Your Dream Home",
		h2:"Miami based real estate agency specialized in luxury villas",
		button:"View our villas"
	},
	
	pageHeadline:{ 
		h1:"We Propose Only Premium and Luxury Villas with Swimming Pools",
		tagline:"Let us help you to find the house of your dreams."
	},
	
	blocs:[
	{
		title:"Our Villas",
		text:"lorem",
		image:"panoramic-112"
	},
	{
		title:"Our Services",
		text:"lorem",
		image:"panoramic-111"
			
	},
	{
		title:"Our Condos",
		text: "lorem",
		image:"panoramic-114"
	}	
	]
}// end luxe-home

]}


