{layouts:[


// layout 1
{rows:[
	{	
		type 	: "header",
		h1 		: true,
		h2 		: true,
		vm		: "default.vm",
		classes	: "shade",
		style	: ".home > div {background:{#AAA;}"
	},
	{
		type 	: "columns",
		vm 		: "",
		nb 		: 3
	}
]}



	
		
]}
		